%YAML 1.1
%TAG !u! tag:unity3d.com,2011:
--- !u!1045 &1
EditorBuildSettings:
  m_ObjectHideFlags: 0
  serializedVersion: 2
  m_Scenes:
  - enabled: 0
    path: Assets/Scenes/SampleScene.unity
    guid: 2cda990e2423bbf4892e6590ba056729
  - enabled: 1
    path: Assets/Scenes/Menu.unity
    guid: 1a131da1809994da7ae08040a38b55f7
  - enabled: 1
    path: Assets/Scenes/Game.unity
    guid: ce912079b3166405c91bda1e7e613583
  - enabled: 1
    path: Assets/Scenes/Final.unity
    guid: c6e4de896634f458eba90483ecbc9408
  m_configObjects: {}
